0; Men&rsquo;s Fitness Workout Manual 2015 + 10 Week Body Plan - Yo; 02/16/2015
1; Computer Magazines Bundle - February 13 2015 (True PDF); 02/16/2015
2; English: How to Speak English Fluently in 1 Week - Edward Clemon; 02/16/2015
3; Assorted Magazine Bundle - February 14 2015 (True PDF); 02/16/2015
4; Photography Magazines - February 13 2015 (True PDF); 02/16/2015
5; Fitness by Penis:  Method to Enlarge Your Penis - Peter Pandore; 02/16/2015
6; Speed Mathematics - Secret Skills Collection; 02/16/2015
7; Science Magazines - February 14 2015 (True PDF); 02/16/2015
8; 150 Best Minimalist House Ideas; 02/16/2015
9; Boost Your Brain - Switch on Your Brain - Joel Levy - Mantesh; 02/16/2015
10; New York Times Bestsellers (January 04, 2015)(Fiction+Non-Fictio; 02/16/2015
11; Mens Magazines - February 10 2015 (True PDF); 02/16/2015
12; Reflexology: Beginners Guide to Eliminate Pain, Lose Weight and ; 02/16/2015
13; Educational Materials - Activity Books, Coloring Books, and Puzz; 02/16/2015
14; The Complete Guide to Bathrooms + Bath Planning Guidelines; 02/16/2015
15; Womens Magazines Bundle - February 14 2015 (True PDF); 02/16/2015
16; Assorted Magazines Bundle - February 5 2015 (True PDF); 02/16/2015
17; Arts and Crafts,Drawing,Computers,Cooking,Handwriting ; 02/16/2015
18; Assorted Magazines Bundle - February 13 2015 (True PDF); 02/16/2015
19; The Hair Bible - A Complete Guide to Health and Care,Fabulous Ha; 02/16/2015
20; The Great Book Of Best Quotes Of All Time.; 02/16/2015
21; Yoga Basics for Men: An Intro to Man Flow Yoga - Dean Pohlman, P; 02/16/2015
22; Jokes Books Collection - Mantesh; 02/16/2015
23; The 48 Laws of Power by Robert Greene; 02/16/2015
24; Assorted Magazines Bundle - February 11 2015 (True PDF); 02/16/2015
25; Thomas Piketty - Capital in the Twenty-First Century [2014][A]; 02/16/2015
26; The 21-Day Big Muscle Plan + The 21-Day Shred - The No-BS Traini; 02/16/2015
27; The Secrets to Writing a Successful Business Plan - Hal Shelton; 02/16/2015
28; The Complete Book of Drawing Techniques [PDF] - Oceanhawk; 02/16/2015
29; Illustrator's Guide to Pen and Pencil Drawing Techniques (gnv64); 02/16/2015
30; Home & Garden Magazines - February 10 2015 (True PDF); 02/16/2015
31; The Official Guide for GMAT Review 2015  [PDF] [StormRG]; 02/16/2015
32; 101 Ready-to-Use Excel Formulas - Michael Alexander, Dick Kuslei; 02/16/2015
33; Womens Magazines Bundle - February 9 2015 (True PDF); 02/16/2015
34; Assorted Magazines Bundle - February 8 2015 (True PDF); 02/16/2015
35; Encyclopedia of Electronic Components Volume 1,2 +  Instruments ; 02/16/2015
36; Five Good Minutes in the Evening - Jeffrey Brantley, Wendy Mills; 02/16/2015
37; Show Me How: 500 Things You Should Know - Instructions for Life ; 02/16/2015
38; Guitar Books for Dummies (gnv64); 02/16/2015
39; Maker Dad - Incredibly Cool  DIY Projects - Mark Frauenfelder ; 02/16/2015
40; 1000 Foods To Eat Before You Die - Mimi Sheraton; 02/16/2015
41; Architecture Books Collection 90 Books; 02/16/2015
42; Suzanne Vermeer - Mont Blanc. NL Ebook. DMT ; 02/16/2015
43; Chi Kung - Warm Up Exercises,Health and Martial Arts collection; 02/16/2015
44; How to Start a Home-based Computer Repair Business - Ryan Arter ; 02/16/2015
45; Fluent in 3 Months -  Speak Any Language, English,French,Spanish; 02/16/2015
46; Food Magazines Bundle - February 13 2015 (True PDF); 02/16/2015
47; Home & Garden Magazines - February 3 2015 (True PDF); 02/16/2015
48; Idiot's Guides: Basic Math and Pre-Algebra - Carolyn Wheater ; 02/16/2015
49; Superfoods at Every Meal - Nourish Your Family with Quick and Ea; 02/16/2015
50; The Flower Gardener's Bible - Guide to Blooms - Lewis Hill, Nanc; 02/16/2015
51; The Art of Seduction by Robert Greene - PDF - WD; 02/16/2015
52; The 4000 English Words Essential for an Educated Vocabulary; 02/16/2015
53; Oxford Word Skills - Basic,Intermediate,Advanced - Learn and Pra; 02/16/2015
54; History Year by Year - The History Of The World From The Stone A; 02/16/2015
55; The Fault in Our Stars [EPUB]; 02/16/2015
56; Practical Electronics for Inventors - 3rd Edition.epub Gooner; 02/16/2015
57; Natural Beauty - Natural make-up,Soothing Therapies, Homemade  P; 02/16/2015
58; The Six Sigma Handbook - The Complete Guide for Greenbelts, Blac; 02/16/2015
59; 12 Chess Books (gnv64); 02/16/2015
60; Ken Follett - Century Trilogy(Books 1, 2 & 3) Epub, Mobi; 02/16/2015
61; The Homeowner's DIY Guide to Electrical Wiring - David Herres - ; 02/16/2015
62; 4000 Essential English Words (Audio book + eBook) 5 - Paul Natio; 02/16/2015
63; Gun Magazines - February 13 2015 (True PDF); 02/16/2015
64; Portrait Mastery in Black & White: Learn the Signature; 02/16/2015
65; Hacking Wireless Networks For Dummies; 02/16/2015
66; Beginning Programming with Python For Dummies [PDF] [StormRG]; 02/16/2015
67; Penis Exercises - A Healthy Book for Enlargement, Enhancement, H; 02/16/2015
68; Reader's Digest - Quotable Quotes; 02/16/2015
69; Assorted Magazines Bundle - February 3 2015 (True PDF); 02/16/2015
70; Project Management For Dummies, 4E [PDF] [StormRG]; 02/16/2015
71; Marketing For Dummies, 4E (2014) [PDF] [StormRG]; 02/16/2015
72; Concrete Countertops Made Simple - A Step-by-Step Guide.pdf Goon; 02/16/2015
73; Life Skills: How to Do Almost Anything (Pdf,Epub,Mobi) - Mantesh; 02/16/2015
74; Muay Thai Training Exercises; 02/16/2015
75; 100 Photographs That Changed The World (Photography Art Ebook).p; 02/16/2015
76; Richard Young - The Big Book of Glamour: 200 Secrets of easier ,; 02/16/2015
77; The Ruby Circle (Bloodlines #6) by Richelle Mead ePub - Xetron; 02/16/2015
78; AutoCAD 2015- No Experience Required [PDF] [StormRG]; 02/16/2015
79; Assorted Magazines - February 9 2015 (True PDF); 02/16/2015
80; Introduction to Java Programming- Comprehensive, 10E [PDF] [Stor; 02/16/2015
81; Reader's Digest - Laughter the Best Medicine - @Work; 02/16/2015
82; Drawing Cartoon Faces - 55+ Projects for Cartoons, Caricatures &; 02/16/2015
83; Linda Gray - Grow Your Own Groceries: How to Feed Your Family; 02/16/2015
84; James Patterson Collection 1976-2012 (ePub mobi); 02/16/2015
85; Be Happy Without Being Perfect - How to Worry Less and Enjoy Lif; 02/16/2015
86; Lippincott Illustrated Reviews Pharmacology, 6E [PDF] [StormRG]; 02/16/2015
87; The Firefly Five Language Visual Dictionary: English, Spanish, F; 02/16/2015
88; Super Nature Encyclopedia.pdf Gooner; 02/16/2015
89; Getting Started With Electronic Projects - Bill Pretty; 02/16/2015
90; Design + Web Design books Collection; 02/16/2015
91; Working with Hand Tools: Techniques for Woodworking - Paul N. Ha; 02/16/2015
92; NY Times Best sellers Fiction & Non-Fiction (16 November 201; 02/16/2015
93; How to Build a Fire: And Other Handy Things Your Grandfather Kne; 02/16/2015
94; Step-up to USMLE Step 1 2015 Edition [PDF] [StormRG]; 02/16/2015
95; Learn Calligraphy The Complete Book of Lettering and Design by M; 02/16/2015
96; Learning PHP, MySQL, JavaScript, CSS & HTML5, 3e (2014).; 02/16/2015
97; The Survival Medicine Handbook - Second Edition - Updated; 02/16/2015
98; Lex Lesgever - Nooit verleden tijd. NL Ebook. DMT ; 02/16/2015
99; Rick Riordan - Het huis van Hades. NL Ebook. DMT ; 02/16/2015
