0; Men&rsquo;s Fitness Workout Manual 2015 + 10 Week Body Plan - Yo; 02/19/2015
1; English: How to Speak English Fluently in 1 Week - Edward Clemon; 02/19/2015
2; Speed Mathematics - Secret Skills Collection; 02/19/2015
3; Computer Magazines Bundle - February 13 2015 (True PDF); 02/19/2015
4; 150 Best Minimalist House Ideas; 02/19/2015
5; Fitness by Penis:  Method to Enlarge Your Penis - Peter Pandore; 02/19/2015
6; The 9 Principles for a Lean & Defined Body - Philip Hoffman; 02/19/2015
7; Boost Your Brain - Switch on Your Brain - Joel Levy - Mantesh; 02/19/2015
8; Assorted Magazine Bundle - February 18 2015 (True PDF); 02/19/2015
9; Photography Magazines - February 13 2015 (True PDF); 02/19/2015
10; New York Times Bestsellers (January 04, 2015)(Fiction+Non-Fictio; 02/19/2015
11; Science Magazines - February 14 2015 (True PDF); 02/19/2015
12; Reflexology: Beginners Guide to Eliminate Pain, Lose Weight and ; 02/19/2015
13; Assorted Magazine Bundle - February 14 2015 (True PDF); 02/19/2015
14; The Great Book Of Best Quotes Of All Time.; 02/19/2015
15; Mens Magazines - February 10 2015 (True PDF); 02/19/2015
16; Tabloid Magazines Bundle - February 18 2015 (True PDF); 02/19/2015
17; Assorted Magazines Bundle - February 5 2015 (True PDF); 02/19/2015
18; Educational Materials - Activity Books, Coloring Books, and Puzz; 02/19/2015
19; Home Garden & Travel Magazines - February 19 2015 (True PDF); 02/19/2015
20; Yoga Basics for Men: An Intro to Man Flow Yoga - Dean Pohlman, P; 02/19/2015
21; Food Magazines Bundle - February 19 2015 (True PDF); 02/19/2015
22; Jokes Books Collection - Mantesh; 02/19/2015
23; The 48 Laws of Power by Robert Greene; 02/19/2015
24; The Muscle And Fitness Cookbook: 55 Fast & Easy Meals for ; 02/19/2015
25; Womens Magazines Bundle - February 18 2015 (True PDF); 02/19/2015
26; The Complete Guide to Bathrooms + Bath Planning Guidelines; 02/19/2015
27; The Secrets to Writing a Successful Business Plan - Hal Shelton; 02/19/2015
28; The 21-Day Big Muscle Plan + The 21-Day Shred - The No-BS Traini; 02/19/2015
29; The Hair Bible - A Complete Guide to Health and Care,Fabulous Ha; 02/19/2015
30; Womens Magazines Bundle - February 14 2015 (True PDF); 02/19/2015
31; Thomas Piketty - Capital in the Twenty-First Century [2014][A]; 02/19/2015
32; Assorted Magazines Bundle - February 13 2015 (True PDF); 02/19/2015
33; Arts and Crafts,Drawing,Computers,Cooking,Handwriting ; 02/19/2015
34; Encyclopedia of Electronic Components Volume 1,2 +  Instruments ; 02/19/2015
35; 101 Ready-to-Use Excel Formulas - Michael Alexander, Dick Kuslei; 02/19/2015
36; Illustrator's Guide to Pen and Pencil Drawing Techniques (gnv64); 02/19/2015
37; Assorted Magazines - February 17 2015 (True PDF); 02/19/2015
38; Architecture Books Collection 90 Books; 02/19/2015
39; Five Good Minutes in the Evening - Jeffrey Brantley, Wendy Mills; 02/19/2015
40; 1000 Foods To Eat Before You Die - Mimi Sheraton; 02/19/2015
41; The Complete Book of Drawing Techniques [PDF] - Oceanhawk; 02/19/2015
42; Maker Dad - Incredibly Cool  DIY Projects - Mark Frauenfelder ; 02/19/2015
43; Guitar Books for Dummies (gnv64); 02/19/2015
44; Assorted Magazines Bundle - February 11 2015 (True PDF); 02/19/2015
45; How to Start a Home-based Computer Repair Business - Ryan Arter ; 02/19/2015
46; Assorted Magazines Bundle - February 8 2015 (True PDF); 02/19/2015
47; Bull Strength Conditioning Workouts  + Real Stone lifting - Joe ; 02/19/2015
48; The Official Guide for GMAT Review 2015  [PDF] [StormRG]; 02/19/2015
49; Home & Garden Magazines - February 10 2015 (True PDF); 02/19/2015
50; Automobile Magazines Bundle - February 17 2015 (True PDF); 02/19/2015
51; Show Me How: 500 Things You Should Know - Instructions for Life ; 02/19/2015
52; Chi Kung - Warm Up Exercises,Health and Martial Arts collection; 02/19/2015
53; Womens Magazines Bundle - February 9 2015 (True PDF); 02/19/2015
54; Fluent in 3 Months -  Speak Any Language, English,French,Spanish; 02/19/2015
55; Gadget & Gamer Magazines - February 17 2015 (True PDF); 02/19/2015
56; The Homeowner's DIY Guide to Electrical Wiring - David Herres - ; 02/19/2015
57; Idiot's Guides: Basic Math and Pre-Algebra - Carolyn Wheater ; 02/19/2015
58; The Art of Seduction by Robert Greene - PDF - WD; 02/19/2015
59; Superfoods at Every Meal - Nourish Your Family with Quick and Ea; 02/19/2015
60; 4000 Essential English Words (Audio book + eBook) 5 - Paul Natio; 02/19/2015
61; Suzanne Vermeer - Mont Blanc. NL Ebook. DMT ; 02/19/2015
62; Practical Electronics for Inventors - 3rd Edition.epub Gooner; 02/19/2015
63; Beginning Programming with Python For Dummies [PDF] [StormRG]; 02/19/2015
64; Ken Follett - Century Trilogy(Books 1, 2 & 3) Epub, Mobi; 02/19/2015
65; NY Times Best sellers Fiction & Non-Fiction (16 November 201; 02/19/2015
66; The Six Sigma Handbook - The Complete Guide for Greenbelts, Blac; 02/19/2015
67; Muay Thai Training Exercises; 02/19/2015
68; Food Poisoning: Outbreaks, Avoiding Food Poisoning; 02/19/2015
69; Gun Magazines - February 13 2015 (True PDF); 02/19/2015
70; Hacking Wireless Networks For Dummies; 02/19/2015
71; Oxford Word Skills - Basic,Intermediate,Advanced - Learn and Pra; 02/19/2015
72; Penis Exercises - A Healthy Book for Enlargement, Enhancement, H; 02/19/2015
73; The 4000 English Words Essential for an Educated Vocabulary; 02/19/2015
74; Home & Garden Magazines - February 3 2015 (True PDF); 02/19/2015
75; Calculus- 1,001 Practice Problems For Dummies [PDF] [StormRG]; 02/19/2015
76; Marketing For Dummies, 4E (2014) [PDF] [StormRG]; 02/19/2015
77; History Year by Year - The History Of The World From The Stone A; 02/19/2015
78; 12 Chess Books (gnv64); 02/19/2015
79; The Flower Gardener's Bible - Guide to Blooms - Lewis Hill, Nanc; 02/19/2015
80; AutoCAD 2015- No Experience Required [PDF] [StormRG]; 02/19/2015
81; Introduction to Java Programming- Comprehensive, 10E [PDF] [Stor; 02/19/2015
82; Lippincott Illustrated Reviews Pharmacology, 6E [PDF] [StormRG]; 02/19/2015
83; Physics for Scientists and Engineers 9th Ed - Serway, Jewett; 02/19/2015
84; 100 Photographs That Changed The World (Photography Art Ebook).p; 02/19/2015
85; Time Magazine USA - 23 February 2015 (gnv64); 02/19/2015
86; The Ruby Circle (Bloodlines #6) by Richelle Mead ePub - Xetron; 02/19/2015
87; Life Skills: How to Do Almost Anything (Pdf,Epub,Mobi) - Mantesh; 02/19/2015
88; Design + Web Design books Collection; 02/19/2015
89; The Fault in Our Stars [EPUB]; 02/19/2015
90; How to Build a Fire: And Other Handy Things Your Grandfather Kne; 02/19/2015
91; Assorted Magazines Bundle - February 3 2015 (True PDF); 02/19/2015
92; Drawing Cartoon Faces - 55+ Projects for Cartoons, Caricatures &; 02/19/2015
93; The Firefly Five Language Visual Dictionary: English, Spanish, F; 02/19/2015
94; James Patterson Collection 1976-2012 (ePub mobi); 02/19/2015
95; Creative Writing Exercises For Dummies [PDF] [StormRG]; 02/19/2015
96; Food Magazines Bundle - February 13 2015 (True PDF); 02/19/2015
97; Portrait Mastery in Black & White: Learn the Signature; 02/19/2015
98; Assorted Magazines - February 9 2015 (True PDF); 02/19/2015
99; The Girl on the Train - Paula Hawkins; 02/19/2015
