0; Men&rsquo;s Fitness Workout Manual 2015 + 10 Week Body Plan - Yo; 03/17/2015
1; Computer,Technology and Engineering And More Educational Books; 03/17/2015
2; English: How to Speak English Fluently in 1 Week - Edward Clemon; 03/17/2015
3; Speed Mathematics - Secret Skills Collection; 03/17/2015
4; Boost Your Brain - Switch on Your Brain - Joel Levy - Mantesh; 03/17/2015
5; The Speed Math Bible - Transform your Brain - Yamada Takumi; 03/17/2015
6; English Pronunciation Books and Audio Books Collection - Mantesh; 03/17/2015
7; Fitness by Penis:  Method to Enlarge Your Penis - Peter Pandore; 03/17/2015
8; The Future of Architecture in 100 Buildings - Marc Kushner,Tonya; 03/17/2015
9; Sketching - Freehand and Digital Drawing Techniques for Artists ; 03/17/2015
10; Reflexology: Beginners Guide to Eliminate Pain, Lose Weight and ; 03/17/2015
11; Assorted Magazines Bundle - March 16 2015 (True PDF); 03/17/2015
12; 50 Shades of Herbs: The Best Natural Remedies for Better Sex, Be; 03/17/2015
13; The Great Book Of Best Quotes Of All Time.; 03/17/2015
14; The 9 Principles for a Lean & Defined Body - Philip Hoffman; 03/17/2015
15; The Secrets to Writing a Successful Business Plan - Hal Shelton; 03/17/2015
16; Jokes Books Collection - Mantesh; 03/17/2015
17; Encyclopedia of Electronic Components Volume 1,2 +  Instruments ; 03/17/2015
18; New York Times Bestsellers (January 04, 2015)(Fiction+Non-Fictio; 03/17/2015
19; Learning Android Software Development ABEE; 03/17/2015
20; Assorted Magazines Bundle - March 15 2015 (True PDF); 03/17/2015
21; Five Good Minutes in the Evening - Jeffrey Brantley, Wendy Mills; 03/17/2015
22; How to Start a Home-based Computer Repair Business - Ryan Arter ; 03/17/2015
23; The Complete Book of Drawing Techniques [PDF] - Oceanhawk; 03/17/2015
24; Fruit and Vegetables in Pots (gnv64); 03/17/2015
25; The 21-Day Big Muscle Plan + The 21-Day Shred - The No-BS Traini; 03/17/2015
26; Assorted Magazines Bundle - March 13 2015 (True PDF); 03/17/2015
27; Magazine Pack 02.20.2015 ABEE; 03/17/2015
28; The Great Big Book of Horrible Things - Matthew White - Mantesh; 03/17/2015
29; 101 Ready-to-Use Excel Formulas - Michael Alexander, Dick Kuslei; 03/17/2015
30; Fluent in 3 Months -  Speak Any Language, English,French,Spanish; 03/17/2015
31; Drawing For Beginners! - Amy Taggart + Drawing Complete Guide Fo; 03/17/2015
32; Assorted Magazines Bundle - March 14 2015 (True PDF); 03/17/2015
33; Discworld Collection by Terry Pratchett; 03/17/2015
34; Educational Materials - Activity Books, Coloring Books, and Puzz; 03/17/2015
35; How to Draw Realistic Portraits: with Colored Pencils - Jasmina ; 03/17/2015
36; Maker Dad - Incredibly Cool  DIY Projects - Mark Frauenfelder ; 03/17/2015
37; Show Me How: 500 Things You Should Know - Instructions for Life ; 03/17/2015
38; The Complete Guide to Bathrooms + Bath Planning Guidelines; 03/17/2015
39; How to Make Your Car Last Forever: Avoid Expensive Repairs, Impr; 03/17/2015
40; Idiot's Guides: Basic Math and Pre-Algebra - Carolyn Wheater ; 03/17/2015
41; 1000 Foods To Eat Before You Die - Mimi Sheraton; 03/17/2015
42; Assorted Magazines Bundle - March 12 2015 (True PDF); 03/17/2015
43; The Muscle And Fitness Cookbook: 55 Fast & Easy Meals for ; 03/17/2015
44; 5 Chess Books - March 2015 (gnv64); 03/17/2015
45; The Hair Bible - A Complete Guide to Health and Care,Fabulous Ha; 03/17/2015
46; The 48 Laws of Power by Robert Greene; 03/17/2015
47; Sex Trafficking - Inside the Business of Modern Slavery (gnv64); 03/17/2015
48; 150 Best Minimalist House Ideas; 03/17/2015
49; Yoga Basics for Men: An Intro to Man Flow Yoga - Dean Pohlman, P; 03/17/2015
50; Computer & Gamer Magazines - March 13 2015 (True PDF); 03/17/2015
51; Hacking Wireless Networks For Dummies; 03/17/2015
52; Financial Statement Analysis (11th Ed)(gnv64); 03/17/2015
53; Home & Garden Magazines - March 12 2015 (True PDF); 03/17/2015
54; Superfoods at Every Meal - Nourish Your Family with Quick and Ea; 03/17/2015
55; Life Skills: How to Do Almost Anything (Pdf,Epub,Mobi) - Mantesh; 03/17/2015
56; The Homeowner's DIY Guide to Electrical Wiring - David Herres - ; 03/17/2015
57; Computer & Gadget Magazines - February 20 2015 (True PDF); 03/17/2015
58; Assorted Magazines Bundle - March 8 2015 (True PDF); 03/17/2015
59; Learn Chinese: Complete; 03/17/2015
60; Womens Magazines Bundle - March 15 2015 (True PDF); 03/17/2015
61; The 4000 English Words Essential for an Educated Vocabulary; 03/17/2015
62; 100 Photographs That Changed The World (Photography Art Ebook).p; 03/17/2015
63; The Economist - March 14 2015  USA; 03/17/2015
64; The Girl on the Train - Paula Hawkins; 03/17/2015
65; Assorted Magazines Bundle - March 11 2015 (True PDF); 03/17/2015
66; Learning PHP, MySQL, JavaScript, CSS & HTML5, 3e (2014).; 03/17/2015
67; Growing and Knowing Lavender (gnv64); 03/17/2015
68; How to Study - Ron Fry - Mantesh; 03/17/2015
69; Problem Solving 101: A Simple Book for Smart People -Mantesh; 03/17/2015
70; Science Magazine - 6 March 2015 (gnv64); 03/17/2015
71; Encyclopedia of Homeopathy: The Definitive Home Reference Guide ; 03/17/2015
72; Great Paintings: The World's Masterpieces Explored and Explained; 03/17/2015
73; How to Clear Your Home of Ghosts & Spirits,Haunted Places; 03/17/2015
74; Complete Flags of the World -Mantesh; 03/17/2015
75; Assorted Magazines Bundle - March 5 2015 (True PDF); 03/17/2015
76; How to Be Your Own Home Electrician,Troubleshooting and Testing ; 03/17/2015
77; Linux User & Developer Issue 150 - 2015  UK; 03/17/2015
78;  The Illustrated Encyclopaedia of Costume and Fashion 1550-1920; 03/17/2015
79; The Book of Books: Recommended Reading: Best Books (Fiction and ; 03/17/2015
80; Penis Exercises - A Healthy Book for Enlargement, Enhancement, H; 03/17/2015
81; Chris Kyle - American Sniper; 03/17/2015
82; The Firefly Five Language Visual Dictionary: English, Spanish, F; 03/17/2015
83; Working with Hand Tools: Techniques for Woodworking - Paul N. Ha; 03/17/2015
84; Best of Watercolor - Painting Color (Art Ebook).pdf; 03/17/2015
85; Guitar Books for Dummies (gnv64); 03/17/2015
86; Photography Magazines - February 13 2015 (True PDF); 03/17/2015
87; Portrait Mastery in Black & White: Learn the Signature; 03/17/2015
88; The Ayurveda Encyclopedia - Ayurvedic Home Remedies Collection; 03/17/2015
89; The Art of Seduction by Robert Greene - PDF - WD; 03/17/2015
90; IELTS Advantage: Reading ,Writing Skills - Jeremy Taylor , Jon W; 03/17/2015
91; Discover Magazine USA - April 2015 (gnv64); 03/17/2015
92; THE ALL PURPOSE LENTIL COOKBOOK; 03/17/2015
93; Penthouse Black Label - March 2015  AU; 03/17/2015
94; Science - March 13 2015  USA; 03/17/2015
95; Best of Watercolor - Painting Texture (Art Ebook).pdf; 03/17/2015
96; Cancel Cable: How Internet Pirates Get Free Stuff; 03/17/2015
97; 10 Secrets to Growing Black Hair Long and Fast - C Collins - Man; 03/17/2015
98; TOP 50 MOST DELICIOUS EMPANADA RECIPES; 03/17/2015
99; Assorted Magazines Bundle - March 10 2015 (True PDF); 03/17/2015
