0; Men&rsquo;s Fitness Workout Manual 2015 + 10 Week Body Plan - Yo; 04/02/2015
1; English: How to Speak English Fluently in 1 Week - Edward Clemon; 04/02/2015
2; Computer,Technology and Engineering And More Educational Books; 04/02/2015
3; Fitness by Penis:  Method to Enlarge Your Penis - Peter Pandore; 04/02/2015
4; Speed Mathematics - Secret Skills Collection; 04/02/2015
5; English Pronunciation Books and Audio Books Collection - Mantesh; 04/02/2015
6; The Great Book Of Best Quotes Of All Time.; 04/02/2015
7; Boost Your Brain - Switch on Your Brain - Joel Levy - Mantesh; 04/02/2015
8; The 9 Principles for a Lean & Defined Body - Philip Hoffman; 04/02/2015
9; Sketching - Freehand and Digital Drawing Techniques for Artists ; 04/02/2015
10; Assorted Magazines - April 2 2015 (True PDF); 04/02/2015
11; The Speed Math Bible - Transform your Brain - Yamada Takumi; 04/02/2015
12; Lonely Planet's Best in Travel 2015: The Best Trends, Destinatio; 04/02/2015
13; The Secrets to Writing a Successful Business Plan - Hal Shelton; 04/02/2015
14; Jokes Books Collection - Mantesh; 04/02/2015
15; Reflexology: Beginners Guide to Eliminate Pain, Lose Weight and ; 04/02/2015
16; 50 Shades of Herbs: The Best Natural Remedies for Better Sex, Be; 04/02/2015
17; New York Times Bestsellers (January 04, 2015)(Fiction+Non-Fictio; 04/02/2015
18; 101 Ready-to-Use Excel Formulas - Michael Alexander, Dick Kuslei; 04/02/2015
19; The Future of Architecture in 100 Buildings - Marc Kushner,Tonya; 04/02/2015
20; The Complete Book of Drawing Techniques [PDF] - Oceanhawk; 04/02/2015
21; Encyclopedia of Electronic Components Volume 1,2 +  Instruments ; 04/02/2015
22; Assorted Magazines Bundle - March 28 2015 (True PDF); 04/02/2015
23; The 21-Day Big Muscle Plan + The 21-Day Shred - The No-BS Traini; 04/02/2015
24; Assorted Magazines Bundle - March 30 2015 (True PDF); 04/02/2015
25; How to Start a Home-based Computer Repair Business - Ryan Arter ; 04/02/2015
26; Five Good Minutes in the Evening - Jeffrey Brantley, Wendy Mills; 04/02/2015
27; Learning Android Software Development ABEE; 04/02/2015
28; The Girl on the Train - Paula Hawkins; 04/02/2015
29; Drawing For Beginners! - Amy Taggart + Drawing Complete Guide Fo; 04/02/2015
30; Fluent in 3 Months -  Speak Any Language, English,French,Spanish; 04/02/2015
31; The Muscle And Fitness Cookbook: 55 Fast & Easy Meals for ; 04/02/2015
32; The Art of Reasoning, 4E Kelley [PDF][StormRG]{HTD15}; 04/02/2015
33; The 48 Laws of Power by Robert Greene; 04/02/2015
34; Hacking Wireless Networks For Dummies; 04/02/2015
35; 1000 Foods To Eat Before You Die - Mimi Sheraton; 04/02/2015
36; Maker Dad - Incredibly Cool  DIY Projects - Mark Frauenfelder ; 04/02/2015
37; The Hair Bible - A Complete Guide to Health and Care,Fabulous Ha; 04/02/2015
38; Discworld Collection by Terry Pratchett; 04/02/2015
39; Show Me How: 500 Things You Should Know - Instructions for Life ; 04/02/2015
40; Anatomy A Photographic Atlas, 8E Rohen [PDF][StormRG]{HTD15}; 04/02/2015
41; The Second World War - A Complete History.pdf; 04/02/2015
42; Assorted Magazines Bundle - March 27 2015 (True PDF); 04/02/2015
43; How to Study - Ron Fry - Mantesh; 04/02/2015
44; The Great Big Book of Horrible Things - Matthew White - Mantesh; 04/02/2015
45; Magazine Pack 02.20.2015 ABEE; 04/02/2015
46; The Book of Books: Recommended Reading: Best Books (Fiction and ; 04/02/2015
47; How to Draw Realistic Portraits: with Colored Pencils - Jasmina ; 04/02/2015
48; Yoga Basics for Men: An Intro to Man Flow Yoga - Dean Pohlman, P; 04/02/2015
49; The Homeowner's DIY Guide to Electrical Wiring - David Herres - ; 04/02/2015
50; Assorted Magazines Bundle - March 21 2015 (True PDF); 04/02/2015
51; Playboy's Magazine - April 2015 (USA); 04/02/2015
52; Learning PHP, MySQL, JavaScript, CSS & HTML5, 3e (2014).; 04/02/2015
53; How to Be Your Own Home Electrician,Troubleshooting and Testing ; 04/02/2015
54; 150 Best Minimalist House Ideas; 04/02/2015
55; Excel Daily Planner; 04/02/2015
56; Home & Garden Magazines - March 30 2015 (True PDF); 04/02/2015
57; Wound Care at a Glance [PDF][StormRG]{HTD15}; 04/02/2015
58; PC Magazine USA - April 2015[MyebookShelf]; 04/02/2015
59; Food Magazines Bundle - March 27 2015 (True PDF); 04/02/2015
60; Superfoods at Every Meal - Nourish Your Family with Quick and Ea; 04/02/2015
61; The Financial System and the Economy, 5E Burton [PDF][StormRG]{H; 04/02/2015
62; Stephen King Books Collection Epub & Mobi - Mantesh; 04/02/2015
63; The Firefly Five Language Visual Dictionary: English, Spanish, F; 04/02/2015
64; Architectural Drawing, 2E David Dernie [PDF][StormRG]{HTD15}; 04/02/2015
65; Introductory Chemistry Atoms First, Russo Silver [PDF][StormRG]{; 04/02/2015
66; The 4000 English Words Essential for an Educated Vocabulary; 04/02/2015
67; The Greatest Minds and Ideas of All Time; 04/02/2015
68; IELTS Advantage: Reading ,Writing Skills - Jeremy Taylor , Jon W; 04/02/2015
69;  Excel Learning Plan; 04/02/2015
70; Educational Materials - Activity Books, Coloring Books, and Puzz; 04/02/2015
71; Idiot's Guides: Basic Math and Pre-Algebra - Carolyn Wheater ; 04/02/2015
72; Home Magazines Bundle - March 27 2015 (True PDF); 04/02/2015
73; The Complete Guide to Bathrooms + Bath Planning Guidelines; 04/02/2015
74; Fruit and Vegetables in Pots (gnv64); 04/02/2015
75; 100 Photographs That Changed The World (Photography Art Ebook).p; 04/02/2015
76; Greens + Grains - Recipes for Deliciously Healthful Meals (gnv64; 04/02/2015
77; The Economist - March 14 2015  USA; 04/02/2015
78; Penis Exercises - A Healthy Book for Enlargement, Enhancement, H; 04/02/2015
79; Lonely Planet California (Travel Guide)[MyebookShelf]; 04/02/2015
80; 100 Greatest Disasters (History Ebook).pdf; 04/02/2015
81; Living by Chemistry, 2E Stacy [PDF][StormRG]{HTD15}; 04/02/2015
82; Fundementals of General, Organic, and Biological Chemistry, 7E [; 04/02/2015
83; Picasso (The World of Art Ebook).pdf; 04/02/2015
84; Assorted Magazines Bundle - March 20 2015 (True PDF); 04/02/2015
85; Assorted Magazines Bundle - March 22 2015 (True PDF); 04/02/2015
86; The Tai Chi Handbook - Ray Pawlett  + Better Body Workouts for W; 04/02/2015
87; Design + Web Design books Collection; 04/02/2015
88; Working with Hand Tools: Techniques for Woodworking - Paul N. Ha; 04/02/2015
89; Practical Medical Procedures at a Glance [PDF][StormRG]; 04/02/2015
90; Handbook of Depression, 2E Friedman [PDF][StormRG]{HTD15}; 04/02/2015
91; The Ayurveda Encyclopedia - Ayurvedic Home Remedies Collection; 04/02/2015
92; 5 Chess Books - March 2015 (gnv64); 04/02/2015
93; Essential Organic Chemistry, 2nd Int Edition Bruice [PDF][StormR; 04/02/2015
94; Portrait Mastery in Black & White: Learn the Signature; 04/02/2015
95; Chinese Art vol.2 (Penguin Art Ebook).pdf; 04/02/2015
96; An Introduction to Financial Markets and Institutions, 2E [PDF][; 04/02/2015
97; Computer & Gadget Magazines - February 20 2015 (True PDF); 04/02/2015
98; Sex Trafficking - Inside the Business of Modern Slavery (gnv64); 04/02/2015
99; Assorted Magazines Bundle - March 24 2015 (True PDF); 04/02/2015
