0; Men&rsquo;s Fitness Workout Manual 2015 + 10 Week Body Plan - Yo; 04/03/2015
1; English: How to Speak English Fluently in 1 Week - Edward Clemon; 04/03/2015
2; Speed Mathematics - Secret Skills Collection; 04/03/2015
3; English Pronunciation Books and Audio Books Collection - Mantesh; 04/03/2015
4; Computer,Technology and Engineering And More Educational Books; 04/03/2015
5; Boost Your Brain - Switch on Your Brain - Joel Levy - Mantesh; 04/03/2015
6; The 9 Principles for a Lean & Defined Body - Philip Hoffman; 04/03/2015
7; Fitness by Penis:  Method to Enlarge Your Penis - Peter Pandore; 04/03/2015
8; The Speed Math Bible - Transform your Brain - Yamada Takumi; 04/03/2015
9; Assorted Magazines - April 2 2015 (True PDF); 04/03/2015
10; Reflexology: Beginners Guide to Eliminate Pain, Lose Weight and ; 04/03/2015
11; Sketching - Freehand and Digital Drawing Techniques for Artists ; 04/03/2015
12; The Secrets to Writing a Successful Business Plan - Hal Shelton; 04/03/2015
13; The Great Book Of Best Quotes Of All Time.; 04/03/2015
14; 50 Shades of Herbs: The Best Natural Remedies for Better Sex, Be; 04/03/2015
15; Lonely Planet's Best in Travel 2015: The Best Trends, Destinatio; 04/03/2015
16; New York Times Bestsellers (January 04, 2015)(Fiction+Non-Fictio; 04/03/2015
17; Jokes Books Collection - Mantesh; 04/03/2015
18; The Complete Book of Drawing Techniques [PDF] - Oceanhawk; 04/03/2015
19; Encyclopedia of Electronic Components Volume 1,2 +  Instruments ; 04/03/2015
20; The 21-Day Big Muscle Plan + The 21-Day Shred - The No-BS Traini; 04/03/2015
21; The Future of Architecture in 100 Buildings - Marc Kushner,Tonya; 04/03/2015
22; 101 Ready-to-Use Excel Formulas - Michael Alexander, Dick Kuslei; 04/03/2015
23; Magazine Pack 02.20.2015 ABEE; 04/03/2015
24; Yoga Basics for Men: An Intro to Man Flow Yoga - Dean Pohlman, P; 04/03/2015
25; Assorted Magazines Bundle - March 28 2015 (True PDF); 04/03/2015
26; How to Start a Home-based Computer Repair Business - Ryan Arter ; 04/03/2015
27; Assorted Magazines Bundle - March 30 2015 (True PDF); 04/03/2015
28; Learning Android Software Development ABEE; 04/03/2015
29; Five Good Minutes in the Evening - Jeffrey Brantley, Wendy Mills; 04/03/2015
30; Discworld Collection by Terry Pratchett; 04/03/2015
31; Fluent in 3 Months -  Speak Any Language, English,French,Spanish; 04/03/2015
32; The Girl on the Train - Paula Hawkins; 04/03/2015
33; The Muscle And Fitness Cookbook: 55 Fast & Easy Meals for ; 04/03/2015
34; Assorted Magazines Bundle - March 22 2015 (True PDF); 04/03/2015
35; Educational Materials - Activity Books, Coloring Books, and Puzz; 04/03/2015
36; Maker Dad - Incredibly Cool  DIY Projects - Mark Frauenfelder ; 04/03/2015
37; The Art of Reasoning, 4E Kelley [PDF][StormRG]{HTD15}; 04/03/2015
38; Idiot's Guides: Basic Math and Pre-Algebra - Carolyn Wheater ; 04/03/2015
39; 1000 Foods To Eat Before You Die - Mimi Sheraton; 04/03/2015
40; The 48 Laws of Power by Robert Greene; 04/03/2015
41; Learning PHP, MySQL, JavaScript, CSS & HTML5, 3e (2014).; 04/03/2015
42; The Great Big Book of Horrible Things - Matthew White - Mantesh; 04/03/2015
43; Drawing For Beginners! - Amy Taggart + Drawing Complete Guide Fo; 04/03/2015
44; Anatomy A Photographic Atlas, 8E Rohen [PDF][StormRG]{HTD15}; 04/03/2015
45; Assorted Magazines Bundle - March 27 2015 (True PDF); 04/03/2015
46; How to Study - Ron Fry - Mantesh; 04/03/2015
47; The 4000 English Words Essential for an Educated Vocabulary; 04/03/2015
48; The Homeowner's DIY Guide to Electrical Wiring - David Herres - ; 04/03/2015
49; Life Skills: How to Do Almost Anything (Pdf,Epub,Mobi) - Mantesh; 04/03/2015
50; The Book of Books: Recommended Reading: Best Books (Fiction and ; 04/03/2015
51; Food Magazines Bundle - March 27 2015 (True PDF); 04/03/2015
52; Playboy - April 2015  ZA; 04/03/2015
53; Home & Garden Magazines - March 30 2015 (True PDF); 04/03/2015
54; Playboy's Magazine - April 2015 (USA); 04/03/2015
55; How to Draw Realistic Portraits: with Colored Pencils - Jasmina ; 04/03/2015
56; Hacking Wireless Networks For Dummies; 04/03/2015
57; Assorted Magazines Bundle - March 21 2015 (True PDF); 04/03/2015
58; Show Me How: 500 Things You Should Know - Instructions for Life ; 04/03/2015
59; The Firefly Five Language Visual Dictionary: English, Spanish, F; 04/03/2015
60; Fruit and Vegetables in Pots (gnv64); 04/03/2015
61; Design + Web Design books Collection; 04/03/2015
62; 150 Best Minimalist House Ideas; 04/03/2015
63; The Greatest Minds and Ideas of All Time; 04/03/2015
64; How to Be Your Own Home Electrician,Troubleshooting and Testing ; 04/03/2015
65; IELTS Advantage: Reading ,Writing Skills - Jeremy Taylor , Jon W; 04/03/2015
66; Sex Trafficking - Inside the Business of Modern Slavery (gnv64); 04/03/2015
67; Practical Medical Procedures at a Glance [PDF][StormRG]; 04/03/2015
68; Financial Statement Analysis (11th Ed)(gnv64); 04/03/2015
69; Portrait Mastery in Black & White: Learn the Signature; 04/03/2015
70; The Ayurveda Encyclopedia - Ayurvedic Home Remedies Collection; 04/03/2015
71; Superfoods at Every Meal - Nourish Your Family with Quick and Ea; 04/03/2015
72; Wound Care at a Glance [PDF][StormRG]{HTD15}; 04/03/2015
73; The Second World War - A Complete History.pdf; 04/03/2015
74; Handbook of Depression, 2E Friedman [PDF][StormRG]{HTD15}; 04/03/2015
75; Introductory Chemistry Atoms First, Russo Silver [PDF][StormRG]{; 04/03/2015
76; 5 Chess Books - March 2015 (gnv64); 04/03/2015
77; Richard Young - The Big Book of Glamour: 200 Secrets of easier ,; 04/03/2015
78; Assorted Magazines Bundle - March 24 2015 (True PDF); 04/03/2015
79; Home Magazines Bundle - March 27 2015 (True PDF); 04/03/2015
80; PC Magazine USA - April 2015[MyebookShelf]; 04/03/2015
81; Practical Electronics for Inventors - 3rd Edition.epub Gooner; 04/03/2015
82; Introduction to Architectural Technology, 2E Silver [PDF][StormR; 04/03/2015
83; Beginning Programming with Python For Dummies [PDF] [StormRG]; 04/03/2015
84; Chris Kyle - American Sniper; 04/03/2015
85; The 100 Greatest Advertisements - (History Design Ebook); 04/03/2015
86; Stephen King Books Collection Epub & Mobi - Mantesh; 04/03/2015
87; The Financial System and the Economy, 5E Burton [PDF][StormRG]{H; 04/03/2015
88; The Hair Bible - A Complete Guide to Health and Care,Fabulous Ha; 04/03/2015
89; Automobile Magazines Bundle - March 27 2015 (True PDF); 04/03/2015
90; 100 Photographs That Changed The World (Photography Art Ebook).p; 04/03/2015
91; Popular Mechanics - April 2015  ZA; 04/03/2015
92; The Economist - 28TH March - 3RD April 2015; 04/03/2015
93; 100 Greatest Disasters (History Ebook).pdf; 04/03/2015
94; Essential Organic Chemistry, 2nd Int Edition Bruice [PDF][StormR; 04/03/2015
95; Computer & Gadget Magazines - February 20 2015 (True PDF); 04/03/2015
96; Fundementals of General, Organic, and Biological Chemistry, 7E [; 04/03/2015
97; Assorted Magazines Bundle - March 13 2015 (True PDF); 04/03/2015
98; Penis Exercises - A Healthy Book for Enlargement, Enhancement, H; 04/03/2015
99; The Composition of Everyday Life, 4E Mauk [PDF][StormRG]{HTD15}; 04/03/2015
