0; Men&rsquo;s Fitness Workout Manual 2015 + 10 Week Body Plan - Yo; 04/08/2015
1; English: How to Speak English Fluently in 1 Week - Edward Clemon; 04/08/2015
2; Speed Mathematics - Secret Skills Collection; 04/08/2015
3; English Pronunciation Books and Audio Books Collection - Mantesh; 04/08/2015
4; Computer,Technology and Engineering And More Educational Books; 04/08/2015
5; Assorted Magazines Bundle - April 3 2015 (True PDF); 04/08/2015
6; Boost Your Brain - Switch on Your Brain - Joel Levy - Mantesh; 04/08/2015
7; Fitness by Penis:  Method to Enlarge Your Penis - Peter Pandore; 04/08/2015
8; The Great Book Of Best Quotes Of All Time.; 04/08/2015
9; Sketching - Freehand and Digital Drawing Techniques for Artists ; 04/08/2015
10; The 9 Principles for a Lean & Defined Body - Philip Hoffman; 04/08/2015
11; The Speed Math Bible - Transform your Brain - Yamada Takumi; 04/08/2015
12; Reflexology: Beginners Guide to Eliminate Pain, Lose Weight and ; 04/08/2015
13; The Secrets to Writing a Successful Business Plan - Hal Shelton; 04/08/2015
14; 101 Ready-to-Use Excel Formulas - Michael Alexander, Dick Kuslei; 04/08/2015
15; 50 Shades of Herbs: The Best Natural Remedies for Better Sex, Be; 04/08/2015
16; Jokes Books Collection - Mantesh; 04/08/2015
17; The 48 Laws of Power by Robert Greene; 04/08/2015
18; Lonely Planet's Best in Travel 2015: The Best Trends, Destinatio; 04/08/2015
19; The Complete Book of Drawing Techniques [PDF] - Oceanhawk; 04/08/2015
20; New York Times Bestsellers (January 04, 2015)(Fiction+Non-Fictio; 04/08/2015
21; Home Magazines Bundle - April 3 2015 (True PDF); 04/08/2015
22; Yoga Basics for Men: An Intro to Man Flow Yoga - Dean Pohlman, P; 04/08/2015
23; Encyclopedia of Electronic Components Volume 1,2 +  Instruments ; 04/08/2015
24; Assorted Magazines - April 2 2015 (True PDF); 04/08/2015
25; The 21-Day Big Muscle Plan + The 21-Day Shred - The No-BS Traini; 04/08/2015
26; Guitar Books for Dummies (gnv64); 04/08/2015
27; Fluent in 3 Months -  Speak Any Language, English,French,Spanish; 04/08/2015
28; Assorted Magazines Bundle - March 28 2015 (True PDF); 04/08/2015
29; Five Good Minutes in the Evening - Jeffrey Brantley, Wendy Mills; 04/08/2015
30; Food Magazines Bundle - April 3 2015 (True PDF); 04/08/2015
31; The Girl on the Train - Paula Hawkins; 04/08/2015
32; How to Start a Home-based Computer Repair Business - Ryan Arter ; 04/08/2015
33; The Future of Architecture in 100 Buildings - Marc Kushner,Tonya; 04/08/2015
34; 100 E-Books For Children; 04/08/2015
35; Learning Android Software Development ABEE; 04/08/2015
36; The Official Guide for GMAT Review 2015  [PDF] [StormRG]; 04/08/2015
37; Thomas Piketty - Capital in the Twenty-First Century [2014][A]; 04/08/2015
38; The Muscle And Fitness Cookbook: 55 Fast & Easy Meals for ; 04/08/2015
39; Beginning Programming with Python For Dummies [PDF] [StormRG]; 04/08/2015
40; Automobile Magazines Bundle - April 3 2015 (True PDF); 04/08/2015
41; Maker Dad - Incredibly Cool  DIY Projects - Mark Frauenfelder ; 04/08/2015
42; Assorted Magazines Bundle - April 5 2015 (True PDF); 04/08/2015
43; The Art of Seduction by Robert Greene - PDF - WD; 04/08/2015
44; Drawing For Beginners! - Amy Taggart + Drawing Complete Guide Fo; 04/08/2015
45; 1000 Foods To Eat Before You Die - Mimi Sheraton; 04/08/2015
46; How to Draw Realistic Portraits: with Colored Pencils - Jasmina ; 04/08/2015
47; The Art of Reasoning, 4E Kelley [PDF][StormRG]{HTD15}; 04/08/2015
48; How to Be Your Own Home Electrician,Troubleshooting and Testing ; 04/08/2015
49; Magazine Pack 02.20.2015 ABEE; 04/08/2015
50; Discworld Collection by Terry Pratchett; 04/08/2015
51; Show Me How: 500 Things You Should Know - Instructions for Life ; 04/08/2015
52; Idiot's Guides: Basic Math and Pre-Algebra - Carolyn Wheater ; 04/08/2015
53; Hacking Wireless Networks For Dummies; 04/08/2015
54; Architecture Books Collection 90 Books; 04/08/2015
55; Stephen King Books Collection Epub & Mobi - Mantesh; 04/08/2015
56; Motorcycle Magazines Bundle - April 3 2015 (True PDF); 04/08/2015
57; Learning PHP, MySQL, JavaScript, CSS & HTML5, 3e (2014).; 04/08/2015
58; The Great Big Book of Horrible Things - Matthew White - Mantesh; 04/08/2015
59; Assorted Magazines Bundle - March 30 2015 (True PDF); 04/08/2015
60; Playboy Nederland April 2015. PDF. DMTT; 04/08/2015
61; Chi Kung - Warm Up Exercises,Health and Martial Arts collection; 04/08/2015
62; The Book of Books: Recommended Reading: Best Books (Fiction and ; 04/08/2015
63; Illustrator's Guide to Pen and Pencil Drawing Techniques (gnv64); 04/08/2015
64; Superfoods at Every Meal - Nourish Your Family with Quick and Ea; 04/08/2015
65; Penis Exercises - A Healthy Book for Enlargement, Enhancement, H; 04/08/2015
66; Life Skills: How to Do Almost Anything (Pdf,Epub,Mobi) - Mantesh; 04/08/2015
67; The Homeowner's DIY Guide to Electrical Wiring - David Herres - ; 04/08/2015
68; 150 Best Minimalist House Ideas; 04/08/2015
69; Playboy's Magazine - April 2015 (USA); 04/08/2015
70; 5 Chess Books - March 2015 (gnv64); 04/08/2015
71; The Firefly Five Language Visual Dictionary: English, Spanish, F; 04/08/2015
72; Anatomy A Photographic Atlas, 8E Rohen [PDF][StormRG]{HTD15}; 04/08/2015
73; The 4000 English Words Essential for an Educated Vocabulary; 04/08/2015
74; The Hair Bible - A Complete Guide to Health and Care,Fabulous Ha; 04/08/2015
75; Statistical Reinforcement Learning (gnv64); 04/08/2015
76; Assorted Magazines Bundle - March 27 2015 (True PDF); 04/08/2015
77; How to Memorize Anything - Aditi Singhal and Sudhir Singhal; 04/08/2015
78; How to Study - Ron Fry - Mantesh; 04/08/2015
79; Fruit and Vegetables in Pots (gnv64); 04/08/2015
80; Introduction to Java Programming- Comprehensive, 10E [PDF] [Stor; 04/08/2015
81; 4000 Essential English Words (Audio book + eBook) 5 - Paul Natio; 04/08/2015
82; The Ayurveda Encyclopedia - Ayurvedic Home Remedies Collection; 04/08/2015
83; Wound Care at a Glance [PDF][StormRG]{HTD15}; 04/08/2015
84; 100 Photographs That Changed The World (Photography Art Ebook).p; 04/08/2015
85; The Complete Guide to Bathrooms + Bath Planning Guidelines; 04/08/2015
86; Design + Web Design books Collection; 04/08/2015
87; Educational Materials - Activity Books, Coloring Books, and Puzz; 04/08/2015
88; Handbook of Depression, 2E Friedman [PDF][StormRG]{HTD15}; 04/08/2015
89; Working with Hand Tools: Techniques for Woodworking - Paul N. Ha; 04/08/2015
90; James Patterson Collection 1976-2012 (ePub mobi); 04/08/2015
91; The Economist - March 14 2015  USA; 04/08/2015
92; Assorted Magazines Bundle - March 21 2015 (True PDF); 04/08/2015
93; The Economist - 28TH March - 3RD April 2015; 04/08/2015
94; IELTS Advantage: Reading ,Writing Skills - Jeremy Taylor , Jon W; 04/08/2015
95; Project Management For Dummies, 4E [PDF] [StormRG]; 04/08/2015
96; The Financial System and the Economy, 5E Burton [PDF][StormRG]{H; 04/08/2015
97; The Second World War - A Complete History.pdf; 04/08/2015
98; Marketing For Dummies, 4E (2014) [PDF] [StormRG]; 04/08/2015
99; Financial Statement Analysis (11th Ed)(gnv64); 04/08/2015
