0; Men&rsquo;s Fitness Workout Manual 2015 + 10 Week Body Plan - Yo; 04/16/2015
1; The Great Book Of Best Quotes Of All Time.; 04/16/2015
2; Show Me How: 500 Things You Should Know - Instructions for Life ; 04/16/2015
3; Hacking Wireless Networks For Dummies; 04/16/2015
4; The 4000 English Words Essential for an Educated Vocabulary; 04/16/2015
5; Learn any Language - 31 Steps Learn English,Spanish,French Verbs; 04/16/2015
6; 100 Photographs That Changed The World (Photography Art Ebook).p; 04/16/2015
7; 150 Best Minimalist House Ideas; 04/16/2015
8; Computer & Gadget Magazines - April 11 2015 (True PDF); 04/16/2015
9; English: How to Speak English Fluently in 1 Week - Edward Clemon; 04/16/2015
10; Oxford Word Skills - Basic,Intermediate,Advanced - Learn and Pra; 04/16/2015
11; The Men's Fitness Exercise Bible; 04/16/2015
12; Speed Mathematics - Secret Skills Collection; 04/16/2015
13; The Business Book (Big Ideas Simply Explained); 04/16/2015
14; New York Times Bestsellers (April 12, 2015)(Fiction+Non-Fiction); 04/16/2015
15; Fluent in 3 Months -  Speak Any Language, English,French,Spanish; 04/16/2015
16; Assorted Magazines Bundle - April 11 2015 (True PDF); 04/16/2015
17; 100 E-Books For Children; 04/16/2015
18; Home & Garden Magazines Bundle - April 15 2015 (True PDF); 04/16/2015
19; Computer,Technology and Engineering And More Educational Books; 04/16/2015
20; English Pronunciation Books and Audio Books Collection - Mantesh; 04/16/2015
21; Life Skills: How to Do Almost Anything (Pdf,Epub,Mobi) - Mantesh; 04/16/2015
22; Assorted Magazines Bundle - April 14 2015 (True PDF); 04/16/2015
23; Womens Magazines Bundle - April 14 2015 (True PDF); 04/16/2015
24; Learning PHP, MySQL, JavaScript, CSS & HTML5, 3e (2014).; 04/16/2015
25; Boost Your Brain - Switch on Your Brain - Joel Levy - Mantesh; 04/16/2015
26; Fitness by Penis:  Method to Enlarge Your Penis - Peter Pandore; 04/16/2015
27; 101 Ready-to-Use Excel Formulas - Michael Alexander, Dick Kuslei; 04/16/2015
28; Reflexology: Beginners Guide to Eliminate Pain, Lose Weight and ; 04/16/2015
29; The 48 Laws of Power by Robert Greene; 04/16/2015
30; The Speed Math Bible - Transform your Brain - Yamada Takumi; 04/16/2015
31; Assorted Magazines Bundle - April 16 2015 (True PDF); 04/16/2015
32; The 9 Principles for a Lean & Defined Body - Philip Hoffman; 04/16/2015
33; The Complete Photography Book - Third Revised Edition 2014; 04/16/2015
34; How To Answer Interview Questions + Cracking the Coding Intervie; 04/16/2015
35; Assorted Magazines Bundle - April 5 2015 (True PDF); 04/16/2015
36; Lonely Planet's Best in Travel 2015: The Best Trends, Destinatio; 04/16/2015
37; An Incomplete Education: 3,684 Things You Should Have Learned bu; 04/16/2015
38; Discworld Collection by Terry Pratchett; 04/16/2015
39; You Can Have an Amazing Memory: Learn Life-Changing Techniques a; 04/16/2015
40; The Secrets to Writing a Successful Business Plan - Hal Shelton; 04/16/2015
41; The Survival Medicine Handbook - Second Edition - Updated; 04/16/2015
42; New York Times Bestsellers (January 04, 2015)(Fiction+Non-Fictio; 04/16/2015
43; Sketching - Freehand and Digital Drawing Techniques for Artists ; 04/16/2015
44; Thomas Piketty - Capital in the Twenty-First Century [2014][A]; 04/16/2015
45; Yoga Basics for Men: An Intro to Man Flow Yoga - Dean Pohlman, P; 04/16/2015
46; Math in Minutes: 200 Key Concepts Explained In An Instant -Mante; 04/16/2015
47; 50 Shades of Herbs: The Best Natural Remedies for Better Sex, Be; 04/16/2015
48; The Complete Book of Drawing Techniques [PDF] - Oceanhawk; 04/16/2015
49; Assorted Magazines Bundle - April 15 2015 (True PDF); 04/16/2015
50; Automobile Magazines Bundle - April 14 2015 (True PDF); 04/16/2015
51; Assorted Magazines Bundle - March 30 2015 (True PDF); 04/16/2015
52; Electronics and Electrical Troubleshooting and Repair,Mechanical; 04/16/2015
53; Home & Garden Magazines - April 7 2015 (True PDF); 04/16/2015
54; IELTS Advantage: Reading ,Writing Skills - Jeremy Taylor , Jon W; 04/16/2015
55; Jokes Books Collection - Mantesh; 04/16/2015
56; Laptop Repair Complete Guide; Including Motherboard Component Le; 04/16/2015
57; Assorted Magazines Bundle - April 3 2015 (True PDF); 04/16/2015
58; You Are Your Own Gym - The Bible Of Bodyweight Exercises For Men; 04/16/2015
59; A Game Of Thrones - all books pdf; 04/16/2015
60; The Big Book of Small House Designs - 75 Award-winning; 04/16/2015
61; Resumes For Computer Careers - The Editors of McGraw-Hill; 04/16/2015
62; Assorted Magazines Bundle - April 8 2015 (True PDF); 04/16/2015
63; Assorted Magazines Bundle - March 28 2015 (True PDF); 04/16/2015
64; Complete Krav Maga - Self-Defense Techniques - Chinese Boxing fo; 04/16/2015
65; Encyclopedia of Electronic Components Volume 1,2 +  Instruments ; 04/16/2015
66; The Girl on the Train - Paula Hawkins; 04/16/2015
67; The Fine Art of Small Talk: How To Start a Conversation, Keep It; 04/16/2015
68; Fifty Shades of Grey - Trilogy PDF; 04/16/2015
69; The Official Guide for GMAT Review 2015  [PDF] [StormRG]; 04/16/2015
70; The Math Handbook - Everyday Math Made Simple +Technical ,Busine; 04/16/2015
71; Illustrator's Guide to Pen and Pencil Drawing Techniques (gnv64); 04/16/2015
72; Teach Yourself Photoshop - 2014; 04/16/2015
73;  The C++ Programming Language, 4th Edition[A4]; 04/16/2015
74; Building Doors and Drawers: A Complete Guide to Design and Const; 04/16/2015
75; Guitar Books for Dummies (gnv64); 04/16/2015
76; Style for Men - Guide to Dressing Well + Being the Best Man - Do; 04/16/2015
77; Rocket Science for the Rest of Us - Ben Gilliland - Mantesh; 04/16/2015
78; Java Programming for Android Developers For Dummies [Epub & ; 04/16/2015
79; The Art of Seduction by Robert Greene - PDF - WD; 04/16/2015
80; The Complete Photo Guide to Great Sex; 04/16/2015
81; Assorted Magazines Bundle - April 12 2015 (True PDF); 04/16/2015
82; Japanese Language Learning Pack; 04/16/2015
83; Five Good Minutes in the Evening - Jeffrey Brantley, Wendy Mills; 04/16/2015
84; The 21-Day Big Muscle Plan + The 21-Day Shred - The No-BS Traini; 04/16/2015
85; A Mind For Numbers: How to Excel at Math and Science ; 04/16/2015
86; Beginning Programming with Python For Dummies [PDF] [StormRG]; 04/16/2015
87; Architecture Books Collection 90 Books; 04/16/2015
88; Esther Verhoef - Lieve Mama. NL Ebook. DMT ; 04/16/2015
89; Men's Fitness Complete Guide to Home Workouts + Men's Health Mus; 04/16/2015
90; Complete Guide to Dumbbell Training + Diamond-Cut Abs - Danny Ka; 04/16/2015
91; Assorted Magazines Bundle - March 22 2015 (True PDF); 04/16/2015
92; CCNA Routing and Switching Study Guide [PDF]; 04/16/2015
93; Learn Python The Hard Way 3rd Edition V413HAV; 04/16/2015
94; The Future of Architecture in 100 Buildings - Marc Kushner,Tonya; 04/16/2015
95; The Science of Paintings (Art Ebook).pdf; 04/16/2015
96; Programming Your Home - Automate with Arduino, Android, and Your; 04/16/2015
97; Interior Design - Architect and Interior Designers  books - Mant; 04/16/2015
98; Tabloid Magazines Bundle - April 15 2015 (True PDF); 04/16/2015
99; Netter's Atlas of Human Anatomy, 6E [PDF] [StormRG]; 04/16/2015
